{
  "npmClient": "yarn",
  "private": true,
  "useWorkspaces": true,
  "version": "independent",
  "command": {
    "publish": {
      "access": "public",
      "allowBranch":["master","feature/*"],
      "registry": "http://localhost:8081/repository/fdn-group/"
    }
  }
}
